…
```
library(rslurm)
library(tidyverse)
library(caret)
library(gbm)

atus_sample <- read_csv('atus_sample.csv')
```

Here we have data on how 5000 people spent a day, with the number of minutes each person spent on 17 different activities, and their sexes. Here are the first few rows and columns.

```
atus_sample[,1:6]

# A tibble: 5,000 x 6
#    sex    caring_for_household_members caring_for_non_household_members consumer_purchases eating_and_drinking education
#    <chr>                         <dbl>                            <dbl>              <dbl>               <dbl>     <dbl>
#  1 female                            0                                0                  0                 133       460
#  2 female                          176                                0                 13                  60         0
#  3 female                            0                                0                 90                  70         0
#  4 male                              0                                0                  0                 105         0
#  5 female                           63                                0                  3                   5         0
#  6 female                            0                                0                 60                 200         0
#  7 male                             60                                0                 10                   0       120
#  8 female                           55                                0                 45                  51         0
#  9 female                            0                                0                  0                  15         0
# 10 male                              0                                0                  0                  30         0
# … with 4,990 more rows
```
…
